{"parametersHost": "localhost:11113",
"inputs":
  {"videoInput":{
    "ip": "127.0.0.1",
    "port": 10072},

    "ballsPositionsInput":{
    "ip": "127.0.0.1",
    "port": 10079}
    },
"outputs":
  {"videoOutput":{
    "ip": "127.0.0.1",
    "port": 10075
    }
}
}