{"parametersHost": "localhost:11112",
"inputs":
  {"videoInput": {
    "ip": "127.0.0.1",
    "port": 10077
    }
  },
"outputs":
  {"ballsPositionsOutput": {
    "ip": "127.0.0.1",
    "port": 10079
    }
  }
}